www.mozilla.org:HSTS	0	18997	1657093344640,1,1,2
location.services.mozilla.com:HSTS	0	18997	1672904535853,1,1,2
www.mozilla.org^partitionKey=%28http%2Cmozilla.org%29:HSTS	0	18997	1657093343261,1,1,2
autoconfig.thunderbird.net:HSTS	0	18997	1672905206110,1,0,2
services.addons.thunderbird.net:HSTS	0	18997	1672904795140,1,0,2
